com/thanh/Controller/homecontroller.class
com/thanh/service/AccountServiceImpl.class
com/thanh/service/AccountService.class
com/thanh/service/BookServiceImpl.class
com/thanh/interceptor/AdminInterceptor.class
com/thanh/model/Account.class
com/thanh/model/Book_img.class
com/thanh/dao/BookDao.class
com/thanh/model/Book.class
com/thanh/interceptor/CheckLoginInterceptor.class
com/thanh/dao/BookDaoImpl.class
com/thanh/service/BookService.class
com/thanh/dao/AccountDaoImpl.class
com/thanh/dao/AccountDao.class
